Exploratory Data Analysis (EDA) and Table Operations
…
Lets group the surnames using the group_by(...) function and then use the summarise(...) function to generate an understanding on classism and family names:

# Group the data based on surnames
grouped_surnames <- group_by(titanic_df, Surname)
# Create two columns MeanFare and Total count
summarise(grouped_surnames, MeanFare = mean(Fare), Total = n())

## # A tibble: 665 x 3
##    Surname   MeanFare Total
##    <chr>        <dbl> <int>
##  1 Abbing        7.55     1
##  2 Abbott       20.2      2
##  3 Abelson      24.0      2
##  4 Adahl         7.25     1
##  5 Adams         8.05     1
##  6 Ahlin         9.48     1
##  7 Aks           9.35     1
##  8 Albimona     18.8      1
##  9 Alexander     7.89     1
## 10 Alhomaki      7.92     1
## # ... with 655 more rows
…
density_values <- titanic_df %>%                    
    group_by(Fare) %>%                               # Groups the data by Fare
    summarise(Frequency = n()) %>%                   # Generetes frequency of Fare
    mutate(Density = Frequency/sum(Frequency)) %>%   # Creates a column Density
    select(Fare, Density)                                  # Outputs the Density column only
# Display density_values
density_values

## # A tibble: 247 x 2
##     Fare Density
##    <dbl>   <dbl>
##  1  0    0.0169 
##  2  4.01 0.00112
##  3  5.00 0.00112
##  4  6.24 0.00112
##  5  6.44 0.00112
##  6  6.45 0.00112
##  7  6.50 0.00225
##  8  6.75 0.00225
##  9  6.86 0.00112
## 10  6.95 0.00112
## # ... with 237 more rows
